[
    {
        "name": "abs_eta_uncalib",
        "shift": 0.9428681620777646,
        "scale": 0.6393294034512385,
        "default": 0.9428681620777646
    },
    {
        "name": "pt_uncalib",
        "shift": 119106.51792743114,
        "scale": 176779.1530514847,
        "default": 119106.51792743114
    },
    {
        "name": "JetFitter_mass",
        "shift": 2152.250274079073,
        "scale": 1467.0425585421121,
        "default": 2152.2502906684404
    },
    {
        "name": "JetFitter_isDefaults",
        "shift": 0.0,
        "scale": 1.0,
        "default": null
    },
    {
        "name": "JetFitter_energyFraction",
        "shift": 0.31534079624546596,
        "scale": 0.34536298899927004,
        "default": 0
    },
    {
        "name": "JetFitter_significance3d",
        "shift": 10.687653158888732,
        "scale": 16.823275344163136,
        "default": 0
    },
    {
        "name": "JetFitter_nVTX",
        "shift": 0.15515697575195686,
        "scale": 0.9798801063892443,
        "default": -1
    },
    {
        "name": "JetFitter_nSingleTracks",
        "shift": 0.06373039100373153,
        "scale": 0.9949750264028842,
        "default": -1
    },
    {
        "name": "JetFitter_nTracksAtVtx",
        "shift": 1.005744611417844,
        "scale": 2.0550991505842897,
        "default": -1
    },
    {
        "name": "JetFitter_N2Tpair",
        "shift": 1.801094667460021,
        "scale": 4.345517928773893,
        "default": -1
    },
    {
        "name": "JetFitter_deltaR",
        "shift": 0.049060831891361775,
        "scale": 0.050410625768519075,
        "default": 0.04906083143825443
    },
    {
        "name": "SV1_NGTinSvx",
        "shift": 1.0522440509960747,
        "scale": 2.7596107206952007,
        "default": -1
    },
    {
        "name": "SV1_masssvx",
        "shift": 2020.4961016390057,
        "scale": 757.458478929193,
        "default": 2020.4961132817248
    },
    {
        "name": "SV1_isDefaults",
        "shift": 0.0,
        "scale": 1.0,
        "default": null
    },
    {
        "name": "SV1_N2Tpair",
        "shift": 1.3458987158730817,
        "scale": 4.322006054030283,
        "default": -1
    },
    {
        "name": "SV1_efracsvx",
        "shift": 0.23903897195989776,
        "scale": 0.33276997071556635,
        "default": 0
    },
    {
        "name": "SV1_deltaR",
        "shift": 0.05372206865228936,
        "scale": 0.09760710764003547,
        "default": 0.05372206862997144
    },
    {
        "name": "SV1_Lxy",
        "shift": 14.580048668199808,
        "scale": 14.065610421373242,
        "default": 14.580048826265035
    },
    {
        "name": "SV1_L3d",
        "shift": 24.848617613223293,
        "scale": 26.866118457803157,
        "default": 24.84861770105256
    },
    {
        "name": "SV1_significance3d",
        "shift": 32.30011043362264,
        "scale": 27.048594472865506,
        "default": 32.30011127534151
    },
    {
        "name": "IP2D_bu",
        "shift": 0.6647559444498818,
        "scale": 4.960668054108494,
        "default": 0.6647559444863994
    },
    {
        "name": "IP2D_isDefaults",
        "shift": 0.0,
        "scale": 1.0,
        "default": null
    },
    {
        "name": "IP2D_bc",
        "shift": -0.684764600461168,
        "scale": 2.2688886359816895,
        "default": -0.6847646001920307
    },
    {
        "name": "IP2D_cu",
        "shift": 1.3390311403987254,
        "scale": 2.811403147171025,
        "default": 1.3390311409535611
    },
    {
        "name": "IP3D_bu",
        "shift": 0.9015587584296972,
        "scale": 5.562327668368255,
        "default": 0.9015587584382058
    },
    {
        "name": "IP3D_isDefaults",
        "shift": 0.0,
        "scale": 1.0,
        "default": null
    },
    {
        "name": "IP3D_bc",
        "shift": -0.6744599322432551,
        "scale": 2.6538219992697383,
        "default": -0.6744599322275271
    },
    {
        "name": "IP3D_cu",
        "shift": 1.5704899536916497,
        "scale": 3.1230806086357576,
        "default": 1.5704899532335104
    },
    {
        "name": "secondaryVtx_nTrks",
        "shift": 1.2647739170944783,
        "scale": 1.3160578511400567,
        "default": 0
    },
    {
        "name": "secondaryVtx_isDefaults",
        "shift": 0.0,
        "scale": 1.0,
        "default": null
    },
    {
        "name": "secondaryVtx_m",
        "shift": 717.1262297049948,
        "scale": 596.5803193863428,
        "default": 717.1262346930731
    },
    {
        "name": "secondaryVtx_E",
        "shift": 65338.578135907876,
        "scale": 172031.63364300493,
        "default": 65338.57814195209
    },
    {
        "name": "secondaryVtx_EFrac",
        "shift": 0.17127693011946238,
        "scale": 0.22573813433722842,
        "default": 0
    },
    {
        "name": "secondaryVtx_L3d",
        "shift": 26.153566337397415,
        "scale": 37.99344243165809,
        "default": 26.15356632461054
    },
    {
        "name": "secondaryVtx_Lxy",
        "shift": 14.702248459918527,
        "scale": 18.949069821099332,
        "default": 14.702248397090269
    },
    {
        "name": "secondaryVtx_max_trk_flightDirRelEta",
        "shift": 4.5150238311380955,
        "scale": 1.02211874518047,
        "default": 4.515023899180519
    },
    {
        "name": "secondaryVtx_min_trk_flightDirRelEta",
        "shift": 3.9298880779584726,
        "scale": 0.9408293728206615,
        "default": 3.92988811560147
    },
    {
        "name": "secondaryVtx_avg_trk_flightDirRelEta",
        "shift": 4.2204330846190015,
        "scale": 0.9345895856883871,
        "default": 4.220433001197169
    },
    {
        "name": "max_trk_flightDirRelEta",
        "shift": 5.288163079578055,
        "scale": 1.198492599133784,
        "default": 5.288163079578055
    },
    {
        "name": "min_trk_flightDirRelEta",
        "shift": 2.329360083965195,
        "scale": 0.5766172000514982,
        "default": 2.329360083965195
    },
    {
        "name": "avg_trk_flightDirRelEta",
        "shift": 3.4600733721176407,
        "scale": 0.7962470818135643,
        "default": 3.4600733721176407
    },
    {
        "name": "rnnip_pb",
        "shift": 0.30822893657474154,
        "scale": 0.33803617057126606,
        "default": 0.30822893656715344
    },
    {
        "name": "rnnip_pc",
        "shift": 0.1762205420420511,
        "scale": 0.11356206284379587,
        "default": 0.1762205420558417
    },
    {
        "name": "rnnip_pu",
        "shift": 0.49307630979250344,
        "scale": 0.3413393971927948,
        "default": 0.4930763097576823
    },
    {
        "name": "rnnip_ptau",
        "shift": 0.022474211603984363,
        "scale": 0.08008880008657478,
        "default": 0.02247421160610787
    },
    {
        "name": "rnnip_isDefaults",
        "shift": 0.0,
        "scale": 1.0,
        "default": null
    },
    {
        "name": "SMT_dR",
        "shift": 0.06584056481474602,
        "scale": 0.021157981032976513,
        "default": 0.06584056603712088
    },
    {
        "name": "SMT_mu_d0",
        "shift": -0.010480130064056091,
        "scale": 0.30747962944230184,
        "default": -0.01048012983676191
    },
    {
        "name": "SMT_qOverPratio",
        "shift": 16.353488876258538,
        "scale": 559.8412343371359,
        "default": 16.353488493780503
    },
    {
        "name": "SMT_pTrel",
        "shift": 7193.906763703033,
        "scale": 4620.569988912496,
        "default": 7193.906975721061
    },
    {
        "name": "SMT_scatneighsignif",
        "shift": 0.3082892297958452,
        "scale": 0.9043139055482351,
        "default": 0.30828922917870677
    },
    {
        "name": "SMT_mombalsignif",
        "shift": 0.6145145313228292,
        "scale": 0.47981427026962353,
        "default": 0.6145145448151542
    },
    {
        "name": "SMT_isDefaults",
        "shift": 0.0,
        "scale": 1.0,
        "default": null
    },
    {
        "name": "iprnn_pb",
        "shift": 0.3836881607102635,
        "scale": 0.35986530714469017,
        "default": 0.3836881607102635
    },
    {
        "name": "iprnn_pc",
        "shift": 0.18063605316596085,
        "scale": 0.14676805054714664,
        "default": 0.18063605316596085
    },
    {
        "name": "iprnn_pu",
        "shift": 0.4356757860949711,
        "scale": 0.3656862113085576,
        "default": 0.4356757860949711
    },
    {
        "name": "softMuon_pt",
        "shift": 30422.595683982556,
        "scale": 21681.019134393104,
        "default": 30422.5954977901
    },
    {
        "name": "softMuon_dR",
        "shift": 0.05750323815001254,
        "scale": 0.01724883018986409,
        "default": 0.05750323649318779
    },
    {
        "name": "softMuon_eta",
        "shift": 0.002653280050294621,
        "scale": 0.33034131972756225,
        "default": 0.002653280148002962
    },
    {
        "name": "softMuon_phi",
        "shift": 0.021970821624321745,
        "scale": 0.5510096490019848,
        "default": 0.021970822400450077
    },
    {
        "name": "softMuon_qOverPratio",
        "shift": 5.503573892702477,
        "scale": 320.1956341000824,
        "default": 5.503573875211402
    },
    {
        "name": "softMuon_momentumBalanceSignificance",
        "shift": 0.6044389019098959,
        "scale": 0.4476203116850868,
        "default": 0.6044389112701236
    },
    {
        "name": "softMuon_scatteringNeighbourSignificance",
        "shift": 0.29922297567923095,
        "scale": 0.831669699421701,
        "default": 0.2992229728576795
    },
    {
        "name": "softMuon_pTrel",
        "shift": 6402.20363234032,
        "scale": 3725.4292924453366,
        "default": 6402.203817721829
    },
    {
        "name": "softMuon_ip3dD0",
        "shift": 0.22146268187396026,
        "scale": 0.22485852531280615,
        "default": 0.2214626817224811
    },
    {
        "name": "softMuon_ip3dZ0",
        "shift": 0.46650311364077446,
        "scale": 2.1553517370402653,
        "default": 0.46650311493004976
    },
    {
        "name": "softMuon_ip3dD0Significance",
        "shift": 9.527648009897852,
        "scale": 6.638691652124699,
        "default": 9.527648377478114
    },
    {
        "name": "softMuon_ip3dZ0Significance",
        "shift": 5.27189444650631,
        "scale": 22.80651300053591,
        "default": 5.271894364318301
    },
    {
        "name": "softMuon_ip3dD0Uncertainty",
        "shift": 0.021221795986556536,
        "scale": 0.005110767774410972,
        "default": 0.021221795362966988
    },
    {
        "name": "softMuon_ip3dZ0Uncertainty",
        "shift": 0.015125640694791912,
        "scale": 2.1600481339082616,
        "default": 0.015125640955632057
    },
    {
        "name": "softMuon_isDefaults",
        "shift": 0.0,
        "scale": 1.0,
        "default": null
    },
    {
        "name": "smt_b",
        "shift": 0.6565990468591739,
        "scale": 0.06658873604552043,
        "default": 0.6565990668900046
    },
    {
        "name": "smt_c",
        "shift": 0.11030481727398626,
        "scale": 0.018581045847171306,
        "default": 0.11030481451794397
    },
    {
        "name": "smt_u",
        "shift": 0.13577212404426597,
        "scale": 0.06873439393654189,
        "default": 0.13577212512808717
    },
    {
        "name": "averageInteractionsPerCrossing",
        "shift": 33.88162531252083,
        "scale": 13.485565980077775,
        "default": 33.88162531252083
    },
    {
        "name": "actualInteractionsPerCrossing",
        "shift": 33.88162531252083,
        "scale": 13.485565980077775,
        "default": 33.88162531252083
    },
    {
        "name": "HadronConeExclTruthLabelID",
        "shift": 3.0,
        "scale": 2.160246899469287,
        "default": 3.0
    }
]