[
    {
        "name": "abs_eta_uncalib",
        "shift": 0.9775932666478403,
        "scale": 0.6523880846954175,
        "default": 0.9775932666478403
    },
    {
        "name": "pt_uncalib",
        "shift": 44219.29816409221,
        "scale": 30965.498079946214,
        "default": 44219.29816409221
    },
    {
        "name": "JetFitter_mass",
        "shift": 1945.1343649786513,
        "scale": 1155.0672274289798,
        "default": 1945.1343408274859
    },
    {
        "name": "JetFitter_isDefaults",
        "shift": 0.0,
        "scale": 1.0,
        "default": null
    },
    {
        "name": "JetFitter_energyFraction",
        "shift": 0.2985818630409397,
        "scale": 0.34800420228380335,
        "default": 0
    },
    {
        "name": "JetFitter_significance3d",
        "shift": 9.097079659911225,
        "scale": 15.502126603810437,
        "default": 0
    },
    {
        "name": "JetFitter_nVTX",
        "shift": 0.03646915966435937,
        "scale": 0.97213337613731,
        "default": -1
    },
    {
        "name": "JetFitter_nSingleTracks",
        "shift": -0.06322617385808835,
        "scale": 0.9451935508220782,
        "default": -1
    },
    {
        "name": "JetFitter_nTracksAtVtx",
        "shift": 0.8281903836938527,
        "scale": 2.065023409104715,
        "default": -1
    },
    {
        "name": "JetFitter_N2Tpair",
        "shift": 1.6065798450009963,
        "scale": 4.084995244895726,
        "default": -1
    },
    {
        "name": "JetFitter_deltaR",
        "shift": 0.06634087719216346,
        "scale": 0.05511032485969441,
        "default": 0.0663408762006841
    },
    {
        "name": "SV1_NGTinSvx",
        "shift": 0.8960789750214089,
        "scale": 2.65086077992486,
        "default": -1
    },
    {
        "name": "SV1_masssvx",
        "shift": 1926.5459204091494,
        "scale": 693.2618777843348,
        "default": 1926.5459557821498
    },
    {
        "name": "SV1_isDefaults",
        "shift": 0.0,
        "scale": 1.0,
        "default": null
    },
    {
        "name": "SV1_N2Tpair",
        "shift": 1.187677328123606,
        "scale": 4.249370948683238,
        "default": -1
    },
    {
        "name": "SV1_efracsvx",
        "shift": 0.22877859500410475,
        "scale": 0.32701552027552216,
        "default": 0
    },
    {
        "name": "SV1_deltaR",
        "shift": 0.06961421775101788,
        "scale": 0.11537439903935069,
        "default": 0.06961421946676584
    },
    {
        "name": "SV1_Lxy",
        "shift": 6.875096412254066,
        "scale": 5.65001842796017,
        "default": 6.8750965589968995
    },
    {
        "name": "SV1_L3d",
        "shift": 12.480659422835584,
        "scale": 12.33651031792596,
        "default": 12.480659322974821
    },
    {
        "name": "SV1_significance3d",
        "shift": 27.223045093592958,
        "scale": 23.04076874134523,
        "default": 27.2230446822084
    },
    {
        "name": "IP2D_bu",
        "shift": 0.9815835898871519,
        "scale": 5.011649489501574,
        "default": 0.9815835898502849
    },
    {
        "name": "IP2D_isDefaults",
        "shift": 0.0,
        "scale": 1.0,
        "default": null
    },
    {
        "name": "IP2D_bc",
        "shift": -0.463348509643517,
        "scale": 2.1860500722911906,
        "default": -0.46334850965696645
    },
    {
        "name": "IP2D_cu",
        "shift": 1.4400929507770823,
        "scale": 2.920155084830468,
        "default": 1.4400929510304514
    },
    {
        "name": "IP3D_bu",
        "shift": 1.232802382305522,
        "scale": 5.6190071242910875,
        "default": 1.2328023822567233
    },
    {
        "name": "IP3D_isDefaults",
        "shift": 0.0,
        "scale": 1.0,
        "default": null
    },
    {
        "name": "IP3D_bc",
        "shift": -0.42014077799008553,
        "scale": 2.5709158556792175,
        "default": -0.42014077802494876
    },
    {
        "name": "IP3D_cu",
        "shift": 1.649687987697658,
        "scale": 3.2307266567910355,
        "default": 1.6496879875613546
    },
    {
        "name": "secondaryVtx_nTrks",
        "shift": 1.201303179739332,
        "scale": 1.3768799592676064,
        "default": 0
    },
    {
        "name": "secondaryVtx_isDefaults",
        "shift": 0.0,
        "scale": 1.0,
        "default": null
    },
    {
        "name": "secondaryVtx_m",
        "shift": 754.1999989477454,
        "scale": 588.8377701842355,
        "default": 754.1999896483876
    },
    {
        "name": "secondaryVtx_E",
        "shift": 27668.96907510543,
        "scale": 34667.026297536904,
        "default": 27668.969303117083
    },
    {
        "name": "secondaryVtx_EFrac",
        "shift": 0.1551238373404032,
        "scale": 0.21262020946297533,
        "default": 0
    },
    {
        "name": "secondaryVtx_L3d",
        "shift": 18.663203856823717,
        "scale": 31.173648085344972,
        "default": 18.663203620966737
    },
    {
        "name": "secondaryVtx_Lxy",
        "shift": 9.647627733523509,
        "scale": 14.299441336005039,
        "default": 9.647627665505595
    },
    {
        "name": "secondaryVtx_max_trk_flightDirRelEta",
        "shift": 4.080359412280355,
        "scale": 0.8291433920598619,
        "default": 4.080359379567447
    },
    {
        "name": "secondaryVtx_min_trk_flightDirRelEta",
        "shift": 3.4784726602626086,
        "scale": 0.7420620750715043,
        "default": 3.4784726256208787
    },
    {
        "name": "secondaryVtx_avg_trk_flightDirRelEta",
        "shift": 3.7762899001352084,
        "scale": 0.7326423031012286,
        "default": 3.7762898722600657
    },
    {
        "name": "max_trk_flightDirRelEta",
        "shift": 4.901725006278779,
        "scale": 0.9866725324512812,
        "default": 4.901725006278779
    },
    {
        "name": "min_trk_flightDirRelEta",
        "shift": 2.15281296009713,
        "scale": 0.5162350271821713,
        "default": 2.15281296009713
    },
    {
        "name": "avg_trk_flightDirRelEta",
        "shift": 3.1128240282931374,
        "scale": 0.6217632743611365,
        "default": 3.1128240282931374
    },
    {
        "name": "rnnip_pb",
        "shift": 0.32322274870928475,
        "scale": 0.3438295475908198,
        "default": 0.32322274867671263
    },
    {
        "name": "rnnip_pc",
        "shift": 0.17110969041070417,
        "scale": 0.11303131361931791,
        "default": 0.171109690407091
    },
    {
        "name": "rnnip_pu",
        "shift": 0.47739353262621015,
        "scale": 0.3439911452950325,
        "default": 0.4773935326044278
    },
    {
        "name": "rnnip_ptau",
        "shift": 0.028274028306969217,
        "scale": 0.0878743895025341,
        "default": 0.028274028309838786
    },
    {
        "name": "rnnip_isDefaults",
        "shift": 0.0,
        "scale": 1.0,
        "default": null
    },
    {
        "name": "SMT_dR",
        "shift": 0.08738005919583287,
        "scale": 0.020160948225999967,
        "default": 0.08738006063855937
    },
    {
        "name": "SMT_mu_d0",
        "shift": 0.0007143591078146157,
        "scale": 0.3480964324128064,
        "default": 0.0007143591221836536
    },
    {
        "name": "SMT_qOverPratio",
        "shift": 13.401679016278315,
        "scale": 543.7823198704654,
        "default": 13.401678768667184
    },
    {
        "name": "SMT_pTrel",
        "shift": 3845.561767451895,
        "scale": 1203.5674644125236,
        "default": 3845.5617660763814
    },
    {
        "name": "SMT_scatneighsignif",
        "shift": 0.2112018322359626,
        "scale": 0.8150440622480054,
        "default": 0.21120183809351886
    },
    {
        "name": "SMT_mombalsignif",
        "shift": 0.5494709031116658,
        "scale": 0.3864880541909655,
        "default": 0.5494709207908334
    },
    {
        "name": "SMT_isDefaults",
        "shift": 0.0,
        "scale": 1.0,
        "default": null
    },
    {
        "name": "iprnn_pb",
        "shift": 0.3851492172882077,
        "scale": 0.3625164121755888,
        "default": 0.3851492172882077
    },
    {
        "name": "iprnn_pc",
        "shift": 0.1783648780787374,
        "scale": 0.14839023335883864,
        "default": 0.1783648780787374
    },
    {
        "name": "iprnn_pu",
        "shift": 0.4364859045790423,
        "scale": 0.3692546578165771,
        "default": 0.4364859045790423
    },
    {
        "name": "softMuon_pt",
        "shift": 13152.203142463602,
        "scale": 3334.1363200625588,
        "default": 13152.203371566748
    },
    {
        "name": "softMuon_dR",
        "shift": 0.07732132819123838,
        "scale": 0.016228385507302982,
        "default": 0.07732132777781962
    },
    {
        "name": "softMuon_eta",
        "shift": 0.007028280763244157,
        "scale": 0.30869767731287473,
        "default": 0.007028280840337935
    },
    {
        "name": "softMuon_phi",
        "shift": 0.012434756375708851,
        "scale": 0.4815370636272124,
        "default": 0.012434756276123629
    },
    {
        "name": "softMuon_qOverPratio",
        "shift": 2.69091630502094,
        "scale": 290.4680159662545,
        "default": 2.690916373252227
    },
    {
        "name": "softMuon_momentumBalanceSignificance",
        "shift": 0.5303307766540849,
        "scale": 0.3509792112288873,
        "default": 0.5303307699084975
    },
    {
        "name": "softMuon_scatteringNeighbourSignificance",
        "shift": 0.21275325111314058,
        "scale": 0.6970412405668923,
        "default": 0.21275325003983994
    },
    {
        "name": "softMuon_pTrel",
        "shift": 3498.705314683674,
        "scale": 988.963498175732,
        "default": 3498.7052152168576
    },
    {
        "name": "softMuon_ip3dD0",
        "shift": 0.198649227115969,
        "scale": 0.1533515224758795,
        "default": 0.19864922051451228
    },
    {
        "name": "softMuon_ip3dZ0",
        "shift": 0.24209482981019068,
        "scale": 1.5298262245708967,
        "default": 0.24209483153736167
    },
    {
        "name": "softMuon_ip3dD0Significance",
        "shift": 9.615561512451553,
        "scale": 5.417572515161017,
        "default": 9.615561868774035
    },
    {
        "name": "softMuon_ip3dZ0Significance",
        "shift": 4.391117106646623,
        "scale": 21.221775269191166,
        "default": 4.391117247010363
    },
    {
        "name": "softMuon_ip3dD0Uncertainty",
        "shift": 0.021526040527864665,
        "scale": 0.0038163937360140036,
        "default": 0.021526040770846487
    },
    {
        "name": "softMuon_ip3dZ0Uncertainty",
        "shift": -0.020179932889033022,
        "scale": 1.531172949302466,
        "default": -0.020179932259417926
    },
    {
        "name": "softMuon_isDefaults",
        "shift": 0.0,
        "scale": 1.0,
        "default": null
    },
    {
        "name": "smt_b",
        "shift": 0.604070840541175,
        "scale": 0.06042637501907958,
        "default": 0.6040708179122916
    },
    {
        "name": "smt_c",
        "shift": 0.10242669271919795,
        "scale": 0.01572284890251256,
        "default": 0.10242669108931657
    },
    {
        "name": "smt_u",
        "shift": 0.10548139375144777,
        "scale": 0.05518434710167733,
        "default": 0.10548139527553266
    },
    {
        "name": "averageInteractionsPerCrossing",
        "shift": 38.992927157479315,
        "scale": 13.533562382465238,
        "default": 38.992927157479315
    },
    {
        "name": "actualInteractionsPerCrossing",
        "shift": 38.992927157479315,
        "scale": 13.533562382465238,
        "default": 38.992927157479315
    },
    {
        "name": "HadronConeExclTruthLabelID",
        "shift": 3.0,
        "scale": 2.160246899469287,
        "default": 3.0
    }
]