{
  "model_name": "DL1r-PFlow_new-taggers-stats",
  "scale_dict": "params_MC16D-ext_2018-PFlow_70-8M_mu.json",
  "train_file": "DL1Training-PFlow_extended-hybrid_MC16D_2018_70-8M_preprocessed-stats-test.h5",
  "validation_file": "MC16d_hybrid_odd_100_PFlow-validation.h5",
  "variable_config": "DL1r_Variables.json",
  "NN_structure":  {
    "lr": 0.01,
    "batch_size": 5000,
    "activations": ["relu", "relu", "relu", "relu", "relu", "relu", "relu", "relu"],
    "units": [128, 72, 60, 48, 36, 24, 12, 6] 
    }
}
