{   "eventnb": "eventNumber",
    "jet_LabDr_HadF": "HadronConeExclTruthLabelID",
    "jet_ip2_cu": "IP2D_cu",
    "jet_e_frac_vtx1": "secondaryVtx_EFrac",
    "jet_rnnip_pb": "rnnip_pb",
    "jet_rnnip_pc": "rnnip_pc",
    "jet_nTrk_vtx1": "secondaryVtx_nTrks",
    "jet_jf_nvtx": "JetFitter_nVTX",
    "jet_jf_nvtx1t": "JetFitter_nSingleTracks",
    "jet_sv1_n2t": "SV1_N2Tpair",
    "jet_rnnip_pu": "rnnip_pu",
    "jet_e_first_vtx":
    "jet_secondaryVtx_E",
    "jet_rnnip_ptau": "rnnip_ptau",
    "jet_sv1_efrc": "SV1_efracsvx",
    "jet_jf_mass": "JetFitter_mass",
    "jet_sv1_Lxy": "SV1_Lxy",
    "jet_JF_Lxy1": "secondaryVtx_Lxy",
    "jet_mu_dR": "SMT_dR",
    "jet_vtx1_MaxTrkRapidity":
    "jet_secondaryVtx_max_trk_flightDirRelEta",
    "jet_sv1_dR": "SV1_deltaR",
    "jet_MaxTrkRapidity": "max_trk_flightDirRelEta",
    "jet_sv1_ntkv": "SV1_NGTinSvx",
    "jet_mu_scatneighsignif": "SMT_scatneighsignif",
    "jet_pt_orig": "pt_uncalib",
    "jet_MinTrkRapidity": "min_trk_flightDirRelEta",
    "jet_jf_efrc": "JetFitter_energyFraction",
    "jet_mu_d0": "SMT_mu_d0",
    "jet_ip2": "IP2D_bu",
    "jet_ip3": "IP3D_bu",
    "jet_closestVtx_L3D": "secondaryVtx_L3d",
    "jet_ip2_c": "IP2D_bc",
    "jet_mu_mombalsignif": "SMT_mombalsignif",
    "jet_ip3_c": "IP3D_bc", "mass_first_vtx": "secondaryVtx_m",
    "jet_sv1_L3d": "SV1_L3d",
    "jet_eta_orig": "abs_eta_uncalib",
    "jet_mu_pTrel": "SMT_pTrel",
    "jet_mu_qOverPratio": "SMT_qOverPratio",
    "jet_vtx1_AvgTrkRapidity": "secondaryVtx_avg_trk_flightDirRelEta",
    "jet_jf_sig3": "JetFitter_significance3d",
    "jet_vtx1_MinTrkRapidity": "secondaryVtx_min_trk_flightDirRelEta",
    "jet_AvgTrkRapidity": "avg_trk_flightDirRelEta",
    "jet_sv1_mass": "SV1_masssvx",
    "jet_jf_dR": "JetFitter_deltaR",
    "jet_sv1_sig3": "SV1_significance3d",
    "jet_jf_n2tv": "JetFitter_N2Tpair",
    "jet_jf_ntrkv": "JetFitter_nTracksAtVtx",
    "jet_ip3_cu": "IP3D_cu"
}
